5502 module 04 demonstration program
…
Interpretation of the output

Exactly one third of the patients are in each of the three exercise programs.

ex_1 |>
    count(i) |>
    mutate(total=sum(n)) |>
    mutate(pct=round(100*n/total, 2)) |>
  mutate(pct=glue("{pct}% ({n}/{total})")) |>
  select(-n, -total)

# A tibble: 300 × 2
       i pct          
   <dbl> <glue>       
 1     1 0.33% (3/900)
 2     2 0.33% (3/900)
 3     3 0.33% (3/900)
 4     4 0.33% (3/900)
 5     5 0.33% (3/900)
 6     6 0.33% (3/900)
 7     7 0.33% (3/900)
 8     8 0.33% (3/900)
 9     9 0.33% (3/900)
10    10 0.33% (3/900)
# ℹ 290 more rows
…
