Examples from module03
…
fn <- "../data/airport.txt"
raw_data <- read_fwf(fn,
  fwf_cols(21, 22, 6, 7, 9, 10, 10),
  col_types="ccnnnnn")
names(raw_data) <- c(
  "airport", 
  "city", 
  "scheduled_departures", 
  "performed_departures", 
  "enplaned_passengers", 
  "enplaned_freight",
  "enplaned_mail")
raw_data

# A tibble: 135 × 7
   airport   city  scheduled_departures performed_departures enplaned_passengers
   <chr>     <chr>                <dbl>                <dbl>               <dbl>
 1 HARTSFIE… ATLA…               285693               288803            22665665
 2 BALTO/WA… BALT…                73300                74048             4420425
 3 LOGAN IN… BOST…               114153               115524             9549585
 4 DOUGLAS … CHAR…               120210               121798             7076954
 5 MIDWAY    CHIC…                64465                66389             3547040
 6 O'HARE I… CHIC…               322430               332338            25636383
 7 DALLAS/F… DALL…               266737               269665            22899267
 8 LOVE FIE… DALL…                39481                40196             2882836
 9 STAPLETO… DENV…               154067               156293            11961839
10 DETROIT … DETR…                 6828                 7162              362655
# ℹ 125 more rows
# ℹ 2 more variables: enplaned_freight <dbl>, enplaned_mail <dbl>
